{
    "fluentMethods": true,
    "relationships": [],
    "fields": [
        {
            "fieldName": "name",
            "fieldType": "String"
        }
    ],
    "changelogDate": "20170602145854",
    "dto": "no",
    "service": "serviceClass",
    "entityTableName": "book",
    "pagination": "no"
}
